{
  "name": "home",
  "base": "PersistedModel",
  "idInjection": true,
  "options": {
    "validateUpsert": true
  },
  "properties": {
    "background_image": {
      "type": "string",
      "required": true
    },
    "selected": {
      "type": "boolean",
      "required": true,
      "default": false
    },
    "optional": {
      "type": "object"
    },
    "extras": {
      "type": [
        "object"
      ]
    }
  },
  "validations": [],
  "relations": {},
  "acls": [],
  "methods": {}
}
