{
  "name": "lsection",
  "plural": "lsections",
  "base": "PersistedModel",
  "idInjection": true,
  "options": {
    "validateUpsert": true
  },
  "properties": {
    "mediaURI": {
      "type": "string"
    },
    "imageURI": {
      "type": "string"
    },
    "zipURI": {
      "type": "string"
    },
    "section_description": {
      "type": "any"
    },
    "archived": {
      "type": "boolean",
      "default": false
    },
    "tags": {
      "type": [
        "string"
      ]
    },
    "optional": {
      "type": "object"
    },
    "extras": {
      "type": [
        "object"
      ]
    }
  },
  "validations": [],
  "relations": {
    "lesson": {
      "type": "belongsTo",
      "model": "lesson",
      "foreignKey": ""
    }
  },
  "acls": [],
  "methods": {}
}
